{
  "title": "Analytics Overview",
  "widgets": [
    {
      "visualization": "cube_analytics_single_stat",
      "title": "Session count",
      "gridAttributes": {
        "position": {
          "yPos": 0,
          "xPos": 0
        },
        "size": {
          "width": 6,
          "height": 2
        }
      }
    },
    {
      "visualization": "cube_analytics_line_chart",
      "title": "Audience",
      "gridAttributes": {
        "position": {
          "xPos": 6
        },
        "size": {
          "width": 6,
          "height": 5
        }
      }
    },
    {
      "visualization": "cube_analytics_data_table",
      "title": "Sources",
      "gridAttributes": {
        "position": {
          "yPos": 2
        },
        "size": {
          "width": 6,
          "height": 5
        }
      }
    }
  ]
}